<svg width="63" height="89" viewBox="0 0 63 89" fill="none" xmlns="http://www.w3.org/2000/svg">
<mask id="path-1-inside-1" fill="white">
<path fill-rule="evenodd" clip-rule="evenodd" d="M31.5898 88.4401C31.5739 88.4401 31.5612 88.4339 31.557 88.4185C31.2392 87.2449 28.0952 76.9168 10.7874 55.3195C8.32331 52.6462 6.11378 49.7544 4.18667 46.6809C4.173 46.6591 4.16577 46.6339 4.16577 46.6081C4.16577 46.584 4.15937 46.5602 4.14727 46.5393C1.44396 41.865 0.0148919 36.5776 0.000115766 31.1942C-0.014694 25.7984 1.39168 20.4917 4.08122 15.795C6.77077 11.0984 10.651 7.17333 15.3408 4.40536C20.0306 1.63738 25.3686 0.12165 30.8308 0.00702241C36.293 -0.107605 41.6914 1.1828 46.496 3.75153C51.3006 6.32026 55.3461 10.079 58.2353 14.6586C61.1244 19.2381 62.7578 24.4811 62.9751 29.8726C63.1887 35.1724 62.0266 40.4365 59.6016 45.1656C59.5178 45.329 59.4444 45.4977 59.3843 45.6712C59.3092 45.8883 59.2143 46.0981 59.0984 46.2964C58.0542 48.0835 56.8728 49.7891 55.5644 51.3981C55.5191 51.4556 55.4756 51.5141 55.4321 51.5726C55.3741 51.6506 55.3162 51.7285 55.2538 51.8043C35.5052 75.6972 31.9851 87.0929 31.6225 88.4186C31.6183 88.4338 31.6057 88.44 31.5898 88.4401Z"/>
</mask>
<path fill-rule="evenodd" clip-rule="evenodd" d="M31.5898 88.4401C31.5739 88.4401 31.5612 88.4339 31.557 88.4185C31.2392 87.2449 28.0952 76.9168 10.7874 55.3195C8.32331 52.6462 6.11378 49.7544 4.18667 46.6809C4.173 46.6591 4.16577 46.6339 4.16577 46.6081C4.16577 46.584 4.15937 46.5602 4.14727 46.5393C1.44396 41.865 0.0148919 36.5776 0.000115766 31.1942C-0.014694 25.7984 1.39168 20.4917 4.08122 15.795C6.77077 11.0984 10.651 7.17333 15.3408 4.40536C20.0306 1.63738 25.3686 0.12165 30.8308 0.00702241C36.293 -0.107605 41.6914 1.1828 46.496 3.75153C51.3006 6.32026 55.3461 10.079 58.2353 14.6586C61.1244 19.2381 62.7578 24.4811 62.9751 29.8726C63.1887 35.1724 62.0266 40.4365 59.6016 45.1656C59.5178 45.329 59.4444 45.4977 59.3843 45.6712C59.3092 45.8883 59.2143 46.0981 59.0984 46.2964C58.0542 48.0835 56.8728 49.7891 55.5644 51.3981C55.5191 51.4556 55.4756 51.5141 55.4321 51.5726C55.3741 51.6506 55.3162 51.7285 55.2538 51.8043C35.5052 75.6972 31.9851 87.0929 31.6225 88.4186C31.6183 88.4338 31.6057 88.44 31.5898 88.4401Z" fill="white"/>
<path d="M10.7874 55.3195L11.5677 54.6942L11.5461 54.6672L11.5227 54.6418L10.7874 55.3195ZM0.000115766 31.1942L-0.99988 31.1969L0.000115766 31.1942ZM4.08122 15.795L3.21344 15.2981L4.08122 15.795ZM15.3408 4.40536L14.8325 3.54417L15.3408 4.40536ZM30.8308 0.00702241L30.8098 -0.992757L30.8308 0.00702241ZM46.496 3.75153L46.0245 4.6334L46.496 3.75153ZM58.2353 14.6586L59.081 14.125V14.125L58.2353 14.6586ZM62.9751 29.8726L63.9743 29.8323L62.9751 29.8726ZM55.5644 51.3981L54.7886 50.7672L54.7836 50.7732L54.7788 50.7794L55.5644 51.3981ZM55.4321 51.5726L56.2346 52.1693L56.2346 52.1693L55.4321 51.5726ZM55.2538 51.8043L56.0246 52.4414L56.026 52.4396L55.2538 51.8043ZM31.6225 88.4186L30.6579 88.1547L31.6225 88.4186ZM31.557 88.4185L32.5222 88.1571L31.557 88.4185ZM59.6016 45.1656L60.4914 45.6219L59.6016 45.1656ZM4.14727 46.5393L3.28161 47.0399L4.14727 46.5393ZM59.0984 46.2964L58.235 45.7919L59.0984 46.2964ZM4.18667 46.6809L5.03391 46.1497L4.18667 46.6809ZM32.5222 88.1571C32.1575 86.8104 28.9309 76.3605 11.5677 54.6942L10.0071 55.9449C27.2595 77.4731 30.3208 87.6793 30.5918 88.6799L32.5222 88.1571ZM11.5227 54.6418C9.10027 52.0136 6.92823 49.1709 5.03391 46.1497L3.33944 47.2121C5.29934 50.3379 7.54635 53.2787 10.0521 55.9973L11.5227 54.6418ZM5.01293 46.0387C2.39687 41.5152 1.01441 36.3995 1.00011 31.1914L-0.99988 31.1969C-0.984623 36.7558 0.491054 42.2147 3.28161 47.0399L5.01293 46.0387ZM1.00011 31.1914C0.985785 25.9715 2.34629 20.837 4.94901 16.292L3.21344 15.2981C0.437072 20.1464 -1.01517 25.6254 -0.99988 31.1969L1.00011 31.1914ZM4.94901 16.292C7.55178 11.7468 11.3077 7.94692 15.8491 5.26655L14.8325 3.54417C9.99433 6.39975 5.98975 10.4499 3.21344 15.2981L4.94901 16.292ZM15.8491 5.26655C20.3905 2.58613 25.5606 1.11784 30.8518 1.0068L30.8098 -0.992757C25.1766 -0.87454 19.6706 0.688639 14.8325 3.54417L15.8491 5.26655ZM30.8518 1.0068C36.1429 0.895764 41.3717 2.14581 46.0245 4.6334L46.9675 2.86966C42.0111 0.219787 36.443 -1.11097 30.8098 -0.992757L30.8518 1.0068ZM46.0245 4.6334C50.6773 7.12095 54.5935 10.7601 57.3895 15.1921L59.081 14.125C56.0988 9.3979 51.9239 5.51956 46.9675 2.86966L46.0245 4.6334ZM57.3895 15.1921C60.1855 19.6241 61.7657 24.6971 61.9759 29.9129L63.9743 29.8323C63.7499 24.2652 62.0633 18.8522 59.081 14.125L57.3895 15.1921ZM61.9759 29.9129C62.1825 35.04 61.0584 40.1331 58.7117 44.7093L60.4914 45.6219C62.9949 40.74 64.1948 35.3048 63.9743 29.8323L61.9759 29.9129ZM58.235 45.7919C57.2167 47.5347 56.0646 49.198 54.7886 50.7672L56.3402 52.029C57.681 50.3803 58.8917 48.6324 59.9618 46.8009L58.235 45.7919ZM54.7788 50.7794C54.7234 50.8496 54.6718 50.9192 54.6296 50.9759L56.2346 52.1693C56.2794 52.109 56.3147 52.0617 56.35 52.0168L54.7788 50.7794ZM54.6296 50.9759C54.5693 51.057 54.5258 51.1152 54.4815 51.169L56.026 52.4396C56.1065 52.3418 56.1789 52.2441 56.2346 52.1693L54.6296 50.9759ZM54.483 51.1672C34.6778 75.1285 31.0698 86.6491 30.6579 88.1547L32.5871 88.6824C32.9004 87.5367 36.3326 76.2658 56.0246 52.4414L54.483 51.1672ZM30.6579 88.1547C30.7202 87.9271 30.8682 87.7169 31.0888 87.5819C31.2862 87.4612 31.4759 87.4403 31.5873 87.4401L31.5924 89.44C31.7197 89.4397 31.9235 89.4158 32.1323 89.2881C32.3642 89.1463 32.5206 88.9253 32.5871 88.6824L30.6579 88.1547ZM30.5918 88.6799C30.658 88.9246 30.8155 89.1471 31.049 89.2892C31.2591 89.4171 31.4642 89.4404 31.5924 89.44L31.5873 87.4401C31.6995 87.4398 31.8903 87.4599 32.089 87.5809C32.3112 87.7161 32.4601 87.9278 32.5222 88.1571L30.5918 88.6799ZM58.7117 44.7093C58.6087 44.9103 58.5162 45.1221 58.4394 45.344L60.3293 45.9983C60.3726 45.8732 60.4269 45.7477 60.4914 45.6219L58.7117 44.7093ZM5.16577 46.6081C5.16577 46.4074 5.11264 46.2111 5.01293 46.0387L3.28161 47.0399C3.20609 46.9094 3.16577 46.7605 3.16577 46.6081H5.16577ZM58.4394 45.344C58.3841 45.5036 58.3159 45.6536 58.235 45.7919L59.9618 46.8009C60.1128 46.5426 60.2343 46.2729 60.3293 45.9983L58.4394 45.344ZM5.03391 46.1497C5.12024 46.2873 5.16577 46.4463 5.16577 46.6081H3.16577C3.16577 46.8214 3.22577 47.0308 3.33944 47.2121L5.03391 46.1497Z" fill="#E4E4E4" mask="url(#path-1-inside-1)"/>
<path d="M11.3646 30.1811C10.567 30.983 12.5842 34.1898 12.5842 34.1898C12.5842 34.1898 10.567 37.3967 11.3646 38.1986C12.9812 39.8238 19.6462 34.1898 19.6462 34.1898C19.6462 34.1898 12.9812 28.5559 11.3646 30.1811Z" fill="#1B1464"/>
<path d="M41.9817 40.8367C41.9817 40.8367 38.0344 48.4099 27.2233 47.9959C26.5286 47.9693 26.0508 47.2941 26.2646 46.6398L29.9687 35.3086L41.9817 40.8367Z" fill="#1B1464"/>
<path d="M41.9818 27.5037C41.9818 27.5037 38.0345 19.9305 27.2234 20.3445C26.5287 20.3711 26.0509 21.0463 26.2648 21.7005L29.9688 33.0318L41.9818 27.5037Z" fill="#1B1464"/>
<path d="M50.2952 34.3515C50.4165 34.0344 50.7679 33.3712 51.7102 32.7896C51.808 32.7293 51.8399 32.6031 51.7804 32.5054C50.0607 29.6804 45.5848 24.293 36.4566 24.293C28.5182 24.293 21.0089 31.0552 18.6431 33.4005C18.2026 33.8372 18.2026 34.5431 18.6431 34.9798C21.0089 37.3252 28.5182 44.0874 36.4566 44.0874C45.6081 44.0874 50.0834 38.6726 51.7933 35.8535C51.8544 35.7528 51.8191 35.6226 51.7165 35.5637C50.9284 35.1128 50.5517 34.8317 50.3774 34.6805C50.2827 34.5984 50.2506 34.4678 50.2952 34.3515Z" fill="#5ACC00"/>
<path d="M51.7161 35.5631C50.928 35.1122 50.5513 34.831 50.3769 34.6799C50.2824 34.5978 50.2502 34.4672 50.2948 34.3509C50.4161 34.0338 50.7675 33.3706 51.7098 32.7891C51.8076 32.7287 51.8394 32.6025 51.78 32.5048C51.359 31.8133 50.7723 30.9681 49.9932 30.0859C49.838 30.5516 49.4673 31.2788 48.7345 32.5351C47.1111 35.2949 42.6427 40.953 33.2877 40.953C27.4456 40.953 21.8359 37.2906 18.3376 34.4215C18.3813 34.6258 18.4825 34.8203 18.6427 34.9792C21.0085 37.3246 28.5178 44.0868 36.4561 44.0868C45.6077 44.0868 50.083 38.672 51.7929 35.8529C51.854 35.7521 51.8188 35.6219 51.7161 35.5631Z" fill="#BAD6CB"/>
<path d="M40.0686 34.172C40.0686 37.7715 40.9345 41.0077 42.3125 43.2461L42.3157 43.246C47.6151 41.6135 50.4979 37.9892 51.7933 35.8538C51.8543 35.7531 51.8191 35.6229 51.7164 35.564C50.9284 35.1131 50.5516 34.832 50.3773 34.6808C50.2827 34.5988 50.2506 34.4682 50.2951 34.3518C50.4164 34.0348 50.7679 33.3716 51.7102 32.79C51.808 32.7296 51.8398 32.6035 51.7803 32.5058C50.4771 30.3648 47.5902 26.753 42.2957 25.1289H42.2934C40.9265 27.3661 40.0686 30.5891 40.0686 34.172Z" fill="#EDFCF6"/>
<path d="M51.7161 35.5631C50.928 35.1122 50.5513 34.831 50.3769 34.6799C50.2824 34.5978 50.2502 34.4672 50.2948 34.3509C50.4161 34.0338 50.7675 33.3706 51.7098 32.7891C51.8076 32.7287 51.8394 32.6025 51.78 32.5048C51.359 31.8133 50.7723 30.9681 49.9932 30.0859C49.838 30.5516 49.4673 31.2788 48.7345 32.5351C47.1111 35.2949 42.6427 40.953 33.2877 40.953C27.4456 40.953 21.8359 37.2906 18.3376 34.4215C18.3813 34.6258 18.4825 34.8203 18.6427 34.9792C21.0085 37.3246 28.5178 44.0868 36.4561 44.0868C45.6077 44.0868 50.083 38.672 51.7929 35.8529C51.854 35.7521 51.8188 35.6219 51.7161 35.5631Z" fill="#1B1464"/>
<path d="M40.0686 34.172C40.0686 37.7715 40.9345 41.0077 42.3125 43.2461L42.3157 43.246C47.6151 41.6135 50.4979 37.9892 51.7933 35.8538C51.8543 35.7531 51.8191 35.6229 51.7164 35.564C50.9284 35.1131 50.5516 34.832 50.3773 34.6808C50.2827 34.5988 50.2506 34.4682 50.2951 34.3518C50.4164 34.0348 50.7679 33.3716 51.7102 32.79C51.808 32.7296 51.8398 32.6035 51.7803 32.5058C50.4771 30.3648 47.5902 26.753 42.2957 25.1289H42.2934C40.9265 27.3661 40.0686 30.5891 40.0686 34.172Z" fill="#5ACC00"/>
<path d="M51.7163 35.5622C50.9282 35.1113 50.5515 34.8301 50.3771 34.679C50.2826 34.5969 50.2504 34.4664 50.295 34.35C50.4163 34.033 50.7677 33.3698 51.71 32.7882C51.8078 32.7278 51.8396 32.6016 51.7802 32.504C51.7326 32.4258 51.6823 32.3452 51.6305 32.2634C51.6153 32.2394 51.5994 32.2147 51.5838 32.1904C51.5446 32.1291 51.5042 32.067 51.4626 32.004C51.4454 31.9778 51.4281 31.9517 51.4105 31.9252C51.3614 31.8517 51.3107 31.7771 51.2585 31.7015C51.2486 31.6873 51.2393 31.6733 51.2293 31.659C51.1653 31.567 51.0988 31.4734 51.03 31.3786C51.0182 31.3624 51.0058 31.3458 50.9939 31.3295C50.9367 31.2513 50.878 31.1724 50.8176 31.0926C50.7984 31.0672 50.7789 31.0419 50.7594 31.0163C50.7002 30.9392 50.6395 30.8614 50.5773 30.783C50.5604 30.7617 50.5439 30.7406 50.5268 30.7192C50.446 30.6186 50.3632 30.5171 50.2773 30.4148C50.2757 30.4129 50.2739 30.4109 50.2723 30.4089C50.1913 30.3126 50.1074 30.2155 50.0218 30.1181C50.0124 30.1074 50.0026 30.0966 49.9931 30.0859C49.8378 30.5517 49.4671 31.2787 48.7347 32.5344C47.6242 34.4223 45.1818 37.666 40.7551 39.5275C41.1391 40.9404 41.67 42.2009 42.3125 43.2445L42.3157 43.2443H42.3158C45.7911 42.1737 48.227 40.2466 49.8576 38.4444C49.8606 38.4411 49.8635 38.4378 49.8666 38.4345C50.0173 38.2676 50.1611 38.1019 50.2981 37.938C50.3039 37.9311 50.3097 37.9241 50.3155 37.9172C50.4489 37.7572 50.5759 37.5991 50.6967 37.4434C50.7046 37.4333 50.7124 37.4233 50.7202 37.4131C50.7786 37.3374 50.836 37.2622 50.8915 37.1879C50.8916 37.1876 50.8918 37.1875 50.8919 37.1872C50.9477 37.1126 51.0016 37.0389 51.0544 36.9658C51.0637 36.9528 51.0729 36.94 51.0822 36.9271C51.1326 36.8567 51.1823 36.7869 51.23 36.718C51.2307 36.7171 51.2314 36.7162 51.232 36.7152C51.2805 36.6455 51.3273 36.5768 51.373 36.5088C51.3828 36.4943 51.3925 36.4799 51.4021 36.4655C51.4456 36.4004 51.4883 36.3359 51.5293 36.2726C51.5303 36.2711 51.5313 36.2696 51.5323 36.2681C51.5741 36.2036 51.6143 36.1403 51.6536 36.0778C51.663 36.0629 51.6723 36.0481 51.6815 36.0334C51.7199 35.972 51.7575 35.9112 51.7934 35.852C51.8542 35.7513 51.819 35.621 51.7163 35.5622Z" fill="#5ACC00"/>
<path d="M44.2924 31.3084C45.0688 31.3084 45.6983 30.6858 45.6983 29.9178C45.6983 29.1499 45.0688 28.5273 44.2924 28.5273C43.5159 28.5273 42.8865 29.1499 42.8865 29.9178C42.8865 30.6858 43.5159 31.3084 44.2924 31.3084Z" fill="#1B1464"/>
<path d="M35.0358 39.3233C35.0358 40.6056 36.0906 41.6489 37.387 41.6489C37.7264 41.6489 38.0016 41.3767 38.0016 41.041C38.0016 40.7053 37.7264 40.4331 37.387 40.4331C36.7683 40.4331 36.2649 39.9353 36.2649 39.3232C36.2649 38.7113 36.7683 38.2134 37.387 38.2134C37.7264 38.2134 38.0016 37.9413 38.0016 37.6056C38.0016 37.2698 37.7264 36.9977 37.387 36.9977C36.7683 36.9977 36.2649 36.4998 36.2649 35.8878C36.2649 35.2759 36.7683 34.778 37.387 34.778C37.7264 34.778 38.0016 34.5059 38.0016 34.1701C38.0016 33.8344 37.7264 33.5623 37.387 33.5623C36.7683 33.5623 36.2649 33.0644 36.2649 32.4524C36.2649 31.8404 36.7683 31.3426 37.387 31.3426C37.7264 31.3426 38.0016 31.0704 38.0016 30.7347C38.0016 30.399 37.7264 30.1268 37.387 30.1268C36.7683 30.1268 36.2649 29.629 36.2649 29.017C36.2649 28.405 36.7683 27.9071 37.387 27.9071C37.7264 27.9071 38.0016 27.635 38.0016 27.2993C38.0016 26.9635 37.7264 26.6914 37.387 26.6914C36.0905 26.6914 35.0358 27.7347 35.0358 29.0169C35.0358 29.6966 35.3322 30.3091 35.8037 30.7346C35.3322 31.1602 35.0358 31.7727 35.0358 32.4523C35.0358 33.132 35.3322 33.7444 35.8037 34.1701C35.3321 34.5956 35.0358 35.2081 35.0358 35.8877C35.0358 36.5674 35.3322 37.1799 35.8037 37.6055C35.3322 38.0312 35.0358 38.6436 35.0358 39.3233Z" fill="#1B1464"/>
<path d="M30.1003 37.6066C30.1003 38.889 31.1551 39.9321 32.4516 39.9321C32.7911 39.9321 33.0662 39.66 33.0662 39.3242C33.0662 38.9885 32.7911 38.7164 32.4516 38.7164C31.8328 38.7164 31.3295 38.2185 31.3295 37.6066C31.3295 36.9945 31.8328 36.4967 32.4516 36.4967C32.7911 36.4967 33.0662 36.2245 33.0662 35.8888C33.0662 35.5531 32.7911 35.2809 32.4516 35.2809C31.8328 35.2809 31.3295 34.7831 31.3295 34.1711C31.3295 33.5591 31.8328 33.0612 32.4516 33.0612C32.7911 33.0612 33.0662 32.7891 33.0662 32.4534C33.0662 32.1176 32.7911 31.8455 32.4516 31.8455C31.8328 31.8455 31.3295 31.3476 31.3295 30.7357C31.3295 30.1238 31.8328 29.6259 32.4516 29.6259C32.7911 29.6259 33.0662 29.3538 33.0662 29.018C33.0662 28.6823 32.7911 28.4102 32.4516 28.4102C31.1551 28.4102 30.1003 29.4534 30.1003 30.7356C30.1003 31.4153 30.3968 32.0277 30.8684 32.4533C30.3968 32.8789 30.1003 33.4913 30.1003 34.1711C30.1003 34.8508 30.3968 35.4632 30.8684 35.8887C30.3968 36.3145 30.1003 36.9269 30.1003 37.6066Z" fill="#1B1464"/>
<path d="M25.1653 35.89C25.1653 37.1723 26.2201 38.2155 27.5166 38.2155C27.856 38.2155 28.1312 37.9434 28.1312 37.6076C28.1312 37.2719 27.856 36.9998 27.5166 36.9998C26.8979 36.9998 26.3944 36.5019 26.3944 35.8899C26.3944 35.2779 26.8978 34.7801 27.5166 34.7801C27.856 34.7801 28.1312 34.5079 28.1312 34.1722C28.1312 33.8365 27.856 33.5643 27.5166 33.5643C26.8979 33.5643 26.3944 33.0665 26.3944 32.4545C26.3944 31.8425 26.8978 31.3446 27.5166 31.3446C27.856 31.3446 28.1312 31.0725 28.1312 30.7368C28.1312 30.401 27.856 30.1289 27.5166 30.1289C26.2201 30.1289 25.1653 31.1721 25.1653 32.4544C25.1653 33.1341 25.4617 33.7465 25.9333 34.1721C25.4617 34.5978 25.1653 35.2103 25.1653 35.89Z" fill="#1B1464"/>
</svg>
