<svg width="60" height="78" viewBox="0 0 60 78" fill="none" xmlns="http://www.w3.org/2000/svg">
<mask id="path-1-inside-1" fill="white">
<path fill-rule="evenodd" clip-rule="evenodd" d="M39.5077 1.42133C48.4733 4.16946 55.7668 11.3953 58.5412 20.2751C61.5299 29.8338 59.88 39.7561 54.0176 47.4976L30.0031 78L5.98852 47.4999C2.07129 42.3299 0 36.169 0 29.6842C0 20.2839 4.56634 11.3371 12.2159 5.75201C19.9223 0.128085 30.0185 -1.48996 39.5077 1.42133Z"/>
</mask>
<path fill-rule="evenodd" clip-rule="evenodd" d="M39.5077 1.42133C48.4733 4.16946 55.7668 11.3953 58.5412 20.2751C61.5299 29.8338 59.88 39.7561 54.0176 47.4976L30.0031 78L5.98852 47.4999C2.07129 42.3299 0 36.169 0 29.6842C0 20.2839 4.56634 11.3371 12.2159 5.75201C19.9223 0.128085 30.0185 -1.48996 39.5077 1.42133Z" fill="white"/>
<path d="M58.5412 20.2751L57.5867 20.5733L57.5868 20.5735L58.5412 20.2751ZM39.5077 1.42133L39.2144 2.37735L39.2146 2.37743L39.5077 1.42133ZM54.0176 47.4976L54.8033 48.1162L54.8092 48.1088L54.8148 48.1013L54.0176 47.4976ZM30.0031 78L29.2174 78.6186L30.0031 79.6165L30.7888 78.6186L30.0031 78ZM5.98852 47.4999L5.19148 48.1038L5.19709 48.1112L5.20283 48.1185L5.98852 47.4999ZM12.2159 5.75201L11.6264 4.94424L11.6263 4.94437L12.2159 5.75201ZM59.4957 19.9769C56.622 10.7792 49.079 3.30919 39.8007 0.465238L39.2146 2.37743C47.8677 5.02974 54.9116 12.0114 57.5867 20.5733L59.4957 19.9769ZM54.8148 48.1013C60.8794 40.0928 62.5772 29.8325 59.4956 19.9767L57.5868 20.5735C60.4825 29.8351 58.8806 39.4193 53.2204 46.8939L54.8148 48.1013ZM30.7888 78.6186L54.8033 48.1162L53.2319 46.879L29.2174 77.3814L30.7888 78.6186ZM5.20283 48.1185L29.2174 78.6186L30.7888 77.3814L6.77421 46.8812L5.20283 48.1185ZM-1 29.6842C-1 36.3871 1.14263 42.7601 5.19148 48.1038L6.78557 46.8959C2.99995 41.8997 1 35.9508 1 29.6842H-1ZM11.6263 4.94437C3.72108 10.7161 -1 19.9618 -1 29.6842H1C1 20.606 5.4116 11.9581 12.8056 6.55965L11.6263 4.94437ZM39.801 0.465313C30.0229 -2.53459 19.5975 -0.87289 11.6264 4.94424L12.8054 6.55978C20.247 1.12906 30.014 -0.445324 39.2144 2.37735L39.801 0.465313Z" fill="#1B1464" mask="url(#path-1-inside-1)"/>
<path d="M32.4039 13.9925C32.0712 13.6403 27.0568 12.5386 25.4658 11.0314L23.7167 11.4913L22.8758 13.1894L26.4707 16.5156L36.63 25.3901L43.757 31.1666C44.5693 30.9622 32.7366 14.3448 32.4039 13.9925Z" fill="#5ACC00"/>
<path d="M20.406 32.0069C19.9065 31.9654 15.7264 32.0766 13.4676 32.0069L12.837 34.1273L13.4677 35.904L18.5135 36.0039L32.3893 35.9042L46.8958 32.9432C47.3368 32.2709 20.9055 32.0485 20.406 32.0069Z" fill="#5ACC00"/>
<path d="M54.3133 38.7162C54.3133 37.4918 53.2521 36.4954 51.9481 36.4954H48.7944C47.4904 36.4954 46.4292 37.4918 46.4292 38.7162C46.4292 39.68 47.0907 40.4943 48.006 40.8007V40.9369C48.006 41.3456 47.652 41.6772 47.2176 41.6772H45.6408V37.1305C46.9969 36.7996 48.006 35.6507 48.006 34.2746C48.006 32.7926 46.8368 31.5734 45.3215 31.358C46.385 28.6627 44.5094 24.0664 40.5058 19.5819L41.8209 18.3471C42.141 18.49 42.4855 18.5692 42.8332 18.5692C43.4395 18.5692 44.045 18.3531 44.5063 17.92C45.4279 17.0539 45.4279 15.6452 44.5063 14.7791L41.161 11.6381C40.2386 10.772 38.7382 10.7735 37.8158 11.6381C37.0904 12.3199 36.9454 13.3341 37.3616 14.1587L36.0466 15.3935C30.4449 10.986 24.6745 9.32186 22.2067 11.6396C21.8985 11.9291 21.8985 12.3969 22.2067 12.6864L42.0456 31.3135H14.8926C13.1534 31.3135 11.739 32.6416 11.739 34.2746C11.739 35.6507 12.7481 36.7996 14.1042 37.1305V41.6772H12.5274C12.093 41.6772 11.739 41.3456 11.739 40.9369V40.8007C12.6543 40.4943 13.3158 39.68 13.3158 38.7162C13.3158 37.4918 12.2546 36.4954 10.9505 36.4954H7.79688C6.49285 36.4954 5.43164 37.4918 5.43164 38.7162C5.43164 39.68 6.09312 40.4943 7.00847 40.8007V41.6772C7.00847 44.1267 9.13009 46.1188 11.739 46.1188H14.1042V51.3006C14.1042 54.1573 16.5798 56.4824 19.6231 56.4824H40.1219C43.1652 56.4824 45.6408 54.1573 45.6408 51.3006V46.1188H48.006C50.6149 46.1188 52.7365 44.1267 52.7365 41.6772V40.8007C53.6519 40.4943 54.3133 39.68 54.3133 38.7162ZM38.9314 12.6864C39.2381 12.3976 39.7387 12.3969 40.047 12.6864L43.3914 15.8273C43.6989 16.116 43.6989 16.5853 43.3914 16.874C43.0832 17.1635 42.5825 17.1627 42.2758 16.874L38.9314 13.7331C38.6239 13.4444 38.6239 12.9751 38.9314 12.6864ZM38.374 15.3039L40.6044 17.3981L39.4643 18.4678C39.1135 18.1088 38.7508 17.752 38.374 17.3981C37.9971 17.0443 37.6163 16.7037 37.2347 16.3743L38.374 15.3039ZM37.2591 18.4441C41.612 22.5311 45.0731 28.311 43.8432 30.9071L23.9846 12.2622C26.7512 11.1081 32.9063 14.3571 37.2591 18.4441ZM13.3158 34.2746C13.3158 33.4581 14.023 32.7941 14.8926 32.7941H44.8524C45.722 32.7941 46.4292 33.4581 46.4292 34.2746C46.4292 35.0911 45.722 35.7551 44.8524 35.7551H14.8926C14.023 35.7551 13.3158 35.0911 13.3158 34.2746ZM7.79688 37.9759H10.9505C11.385 37.9759 11.739 38.3075 11.739 38.7162C11.739 39.1248 11.385 39.4564 10.9505 39.4564H7.79688C7.36247 39.4564 7.00847 39.1248 7.00847 38.7162C7.00847 38.3075 7.36247 37.9759 7.79688 37.9759ZM11.739 44.6382C9.99971 44.6382 8.5853 43.3102 8.5853 41.6772V40.9369H10.1621C10.1621 42.1613 11.2233 43.1577 12.5274 43.1577H14.1042V44.6382H11.739ZM40.1219 55.0019H19.6231C17.4494 55.0019 15.681 53.3415 15.681 51.3006V37.2356H44.064V51.3006C44.064 53.3415 42.2955 55.0019 40.1219 55.0019ZM48.006 44.6382H45.6408V43.1577H47.2176C48.5216 43.1577 49.5829 42.1613 49.5829 40.9369H51.1597V41.6772C51.1597 43.3102 49.7453 44.6382 48.006 44.6382ZM51.9481 39.4564H48.7944C48.36 39.4564 48.006 39.1248 48.006 38.7162C48.006 38.3075 48.36 37.9759 48.7944 37.9759H51.9481C52.3825 37.9759 52.7365 38.3075 52.7365 38.7162C52.7365 39.1248 52.3825 39.4564 51.9481 39.4564Z" fill="#1B1464"/>
<path d="M41.6968 51.3005C41.6968 52.117 40.9896 52.7811 40.1199 52.7811V54.2617C41.8592 54.2617 43.2736 52.9336 43.2736 51.3005V40.9363H41.6968V51.3005Z" fill="#1B1464"/>
<path d="M18.2188 25.1313C18.6098 25.4985 18.8243 25.9856 18.8243 26.5038C18.8243 27.022 18.6098 27.5091 18.2188 27.8763L16.6901 29.3117L17.8049 30.3585L19.3336 28.9231C20.0227 28.2768 20.4011 27.4173 20.4011 26.5038C20.4011 25.5903 20.0227 24.7308 19.3336 24.0845L18.6406 23.4338C18.2503 23.0673 18.0359 22.5802 18.0359 22.062C18.0359 21.5438 18.2503 21.0567 18.6414 20.6895L20.1701 19.2541L19.0553 18.2073L17.5266 19.6427C16.8375 20.289 16.459 21.1485 16.459 22.062C16.459 22.9755 16.8375 23.835 17.5266 24.4813L18.2188 25.1313Z" fill="#1B1464"/>
<path d="M27.2823 19.2541L26.1675 18.2073L24.6388 19.6427C23.9497 20.289 23.5713 21.1485 23.5713 22.062C23.5713 22.9755 23.9497 23.835 24.6388 24.4813L25.3318 25.132C25.7221 25.4985 25.9365 25.9856 25.9365 26.5038C25.9365 27.022 25.7221 27.5091 25.331 27.8763L23.8023 29.3117L24.9171 30.3585L26.4458 28.9231C27.1349 28.2768 27.5133 27.4173 27.5133 26.5038C27.5133 25.5903 27.1349 24.7308 26.4458 24.0845L25.7528 23.4338C25.3625 23.0673 25.1481 22.5802 25.1481 22.062C25.1481 21.5438 25.3625 21.0567 25.7536 20.6895L27.2823 19.2541Z" fill="#1B1464"/>
</svg>
